Analysis – Data Warriors MA [46]15 Final Project
…
demographic_data

# A tibble: 8,035 × 15
   `Census Tract` `CES 4.0 Score` `CES 4.0 Percentile` CES 4.0 Percentile Rang…¹
            <dbl>           <dbl>                <dbl> <chr>                    
 1     6001400100            4.85                 2.8  1-5% (lowest scores)     
 2     6001400200            4.88                 2.87 1-5% (lowest scores)     
 3     6001400300           11.2                 15.9  15-20%                   
 4     6001400400           12.4                 19.0  15-20%                   
 5     6001400500           16.7                 29.7  25-30%                   
 6     6001400600           20.0                 37.6  35-40%                   
 7     6001400700           36.7                 70.1  70-75%                   
 8     6001400800           37.1                 70.7  70-75%                   
 9     6001400900           40.7                 76.2  75-80%                   
10     6001401000           43.7                 80.4  80-85%                   
# ℹ 8,025 more rows
# ℹ abbreviated name: ¹​`CES 4.0 Percentile Range`
# ℹ 11 more variables: `California County` <chr>, `Total Population` <dbl>,
#   `Children < 10 years (%)` <dbl>, `Pop 10-64 years (%)` <dbl>,
#   `Elderly > 64 years (%)` <dbl>, `Hispanic (%)` <dbl>, `White (%)` <dbl>,
#   `African American (%)` <dbl>, `Native American (%)` <dbl>,
#   `Asian American (%)` <dbl>, `Other/Multiple (%)` <dbl>
…
